[
    "Abi-Dalzim's Horrid Wilting",
    "Absorb Elements",
    "Acid Splash",
    "Aganazzar's Scorcher",
    "Aid",
    "Alarm",
    "Alter Self",
    "Animal Friendship",
    "Animal Messenger",
    "Animal Shapes",
    "Animate Dead",
    "Animate Objects",
    "Antilife Shell",
    "Antimagic Field",
    "Antipathy/Sympathy",
    "Arcane Eye",
    "Arcane Gate",
    "Arcane Lock",
    "Armor of Agathys",
    "Arms of Hadar",
    "Astral Projection",
    "Augury",
    "Aura of Life",
    "Aura of Purity",
    "Aura of Vitality",
    "Awaken",
    "Bane",
    "Banishing Smite",
    "Banishment",
    "Barkskin",
    "Beacon of Hope",
    "Beast Bond",
    "Beast Sense",
    "Bestow Curse",
    "Bigby's Hand",
    "Blade Barrier",
    "Blade Ward",
    "Bless",
    "Blight",
    "Blinding Smite",
    "Blindness/Deafness",
    "Blink",
    "Blur",
    "Bones of the Earth",
    "Booming Blade",
    "Branding Smite",
    "Burning Hands",
    "Call Lightning",
    "Calm Emotions",
    "Catapult",
    "Chain Lightning",
    "Charm Person",
    "Chill Touch",
    "Chromatic Orb",
    "Circle of Death",
    "Circle of Power",
    "Clairvoyance",
    "Clone",
    "Cloud of Daggers",
    "Cloudkill",
    "Color Spray",
    "Command",
    "Commune",
    "Commune with Nature",
    "Compelled Duel",
    "Comprehend Languages",
    "Compulsion",
    "Cone of Cold",
    "Confusion",
    "Conjure Animals",
    "Conjure Barrage",
    "Conjure Celestial",
    "Conjure Elemental",
    "Conjure Fey",
    "Conjure Minor Elementals",
    "Conjure Volley",
    "Conjure Woodland Beings",
    "Contact Other Plane",
    "Contagion",
    "Contingency",
    "Continual Flame",
    "Control Flames",
    "Control Water",
    "Control Weather",
    "Control Winds",
    "Cordon of Arrows",
    "Counterspell",
    "Create Bonfire",
    "Create Food and Water",
    "Create Undead",
    "Create or Destroy Water",
    "Creation",
    "Crown of Madness",
    "Crusader's Mantle",
    "Cure Wounds",
    "Dancing Lights",
    "Darkness",
    "Darkvision",
    "Daylight",
    "Death Ward",
    "Delayed Blast Fireball",
    "Demiplane",
    "Destructive Wave",
    "Detect Evil and Good",
    "Detect Magic",
    "Detect Poison and Disease",
    "Detect Thoughts",
    "Dimension Door",
    "Disguise Self",
    "Disintegrate",
    "Dispel Evil and Good",
    "Dispel Magic",
    "Dissonant Whispers",
    "Divination",
    "Divine Favor",
    "Divine Word",
    "Dominate Beast",
    "Dominate Monster",
    "Dominate Person",
    "Drawmij's Instant Summon",
    "Dream",
    "Druidcraft",
    "Dust Devil",
    "Earth Tremor",
    "Earthbind",
    "Earthquake",
    "Eldritch Blast",
    "Elemental Bane",
    "Elemental Weapon",
    "Enhance Ability",
    "Enlarge/Reduce",
    "Ensnaring Strike",
    "Entangle",
    "Enthrall",
    "Erupting Earth",
    "Etherealness",
    "Evard's Black Tentacles",
    "Expeditious Retreat",
    "Eyebite",
    "Fabricate",
    "Faerie Fire",
    "False Life",
    "Fear",
    "Feather Fall",
    "Feeblemind",
    "Feign Death",
    "Find Familiar",
    "Find Steed",
    "Find Traps",
    "Find the Path",
    "Finger of Death",
    "Fire Bolt",
    "Fire Shield",
    "Fire Storm",
    "Fireball",
    "Flame Arrows",
    "Flame Blade",
    "Flame Strike",
    "Flaming Sphere",
    "Flesh to Stone",
    "Fly",
    "Fog Cloud",
    "Forbiddance",
    "Forcecage",
    "Foresight",
    "Freedom of Movement",
    "Friends",
    "Frostbite",
    "Gaseous Form",
    "Gate",
    "Geas",
    "Gentle Repose",
    "Giant Insect",
    "Glibness",
    "Globe of Invulnerability",
    "Glyph of Warding",
    "Goodberry",
    "Grasping Vine",
    "Grease",
    "Greater Invisibility",
    "Greater Restoration",
    "Green-Flame Blade",
    "Guardian of Faith",
    "Guards and Wards",
    "Guidance",
    "Guiding Bolt",
    "Gust",
    "Gust of Wind",
    "Hail of Thorns",
    "Hallow",
    "Hallucinatory Terrain",
    "Harm",
    "Haste",
    "Heal",
    "Healing Word",
    "Heat Metal",
    "Hellish Rebuke",
    "Heroes' Feast",
    "Heroism",
    "Hex",
    "Hold Monster",
    "Hold Person",
    "Holy Aura",
    "Hunger of Hadar",
    "Hunter's Mark",
    "Hypnotic Pattern",
    "Ice Knife",
    "Ice Storm",
    "Identify",
    "Illusory Script",
    "Immolation",
    "Imprisonment",
    "Incendiary Cloud",
    "Inflict Wounds",
    "Insect Plague",
    "Investiture of Flame",
    "Investiture of Ice",
    "Investiture of Stone",
    "Investiture of Wind",
    "Invisibility",
    "Jump",
    "Knock",
    "Legend Lore",
    "Leomund's Secret Chest",
    "Leomund's Tiny Hut",
    "Lesser Restoration",
    "Levitate",
    "Light",
    "Lightning Arrow",
    "Lightning Bolt",
    "Lightning Lure",
    "Locate Animals or Plants",
    "Locate Creature",
    "Locate Object",
    "Longstrider",
    "Maelstrom",
    "Mage Armor",
    "Mage Hand",
    "Magic Circle",
    "Magic Jar",
    "Magic Missile",
    "Magic Mouth",
    "Magic Stone",
    "Magic Weapon",
    "Major Image",
    "Mass Cure Wounds",
    "Mass Heal",
    "Mass Healing Word",
    "Mass Suggestion",
    "Maximilian's Earthen Grasp",
    "Maze",
    "Meld into Stone",
    "Melf's Acid Arrow",
    "Melf's Minute Meteors",
    "Mending",
    "Message",
    "Meteor Swarm",
    "Mind Blank",
    "Minor Illusion",
    "Mirage Arcane",
    "Mirror Image",
    "Mislead",
    "Misty Step",
    "Modify Memory",
    "Mold Earth",
    "Moonbeam",
    "Mordenkainen's Faithful Hound",
    "Mordenkainen's Magnificent Mansion",
    "Mordenkainen's Private Sanctum",
    "Mordenkainen's Sword",
    "Move Earth",
    "Nondetection",
    "Nystul's Magic Aura",
    "Otiluke's Freezing Sphere",
    "Otiluke's Resilient Sphere",
    "Otto's Irresistible Dance",
    "Pass Without Trace",
    "Passwall",
    "Phantasmal Force",
    "Phantasmal Killer",
    "Phantom Steed",
    "Planar Ally",
    "Planar Binding",
    "Plane Shift",
    "Plant Growth",
    "Poison Spray",
    "Polymorph",
    "Power Word Heal",
    "Power Word Kill",
    "Power Word Stun",
    "Prayer of Healing",
    "Prestidigitation",
    "Primordial Ward",
    "Prismatic Spray",
    "Prismatic Wall",
    "Produce Flame",
    "Programmed Illusion",
    "Project Image",
    "Protection from Energy",
    "Protection from Evil and Good",
    "Protection from Poison",
    "Purify Food and Drink",
    "Pyrotechnics",
    "Raise Dead",
    "Rary's Telepathic Bond",
    "Ray of Enfeeblement",
    "Ray of Frost",
    "Ray of Sickness",
    "Regenerate",
    "Reincarnate",
    "Remove Curse",
    "Resistance",
    "Resurrection",
    "Reverse Gravity",
    "Revivify",
    "Rope Trick",
    "Sacred Flame",
    "Sanctuary",
    "Scorching Ray",
    "Scrying",
    "Searing Smite",
    "See Invisibility",
    "Seeming",
    "Sending",
    "Sequester",
    "Shape Water",
    "Shapechange",
    "Shatter",
    "Shield",
    "Shield of Faith",
    "Shillelagh",
    "Shocking Grasp",
    "Silence",
    "Silent Image",
    "Simulacrum",
    "Skywrite",
    "Sleep",
    "Sleet Storm",
    "Slow",
    "Snilloc's Snowball Swarm",
    "Spare the Dying",
    "Speak with Animals",
    "Speak with Dead",
    "Speak with Plants",
    "Spider Climb",
    "Spike Growth",
    "Spirit Guardians",
    "Spiritual Weapon",
    "Staggering Smite",
    "Stinking Cloud",
    "Stone Shape",
    "Stoneskin",
    "Storm Sphere",
    "Storm of Vengeance",
    "Suggestion",
    "Sunbeam",
    "Sunburst",
    "Swift Quiver",
    "Sword Burst",
    "Symbol",
    "Tasha's Hideous Laughter",
    "Telekinesis",
    "Telepathy",
    "Teleport",
    "Teleportation Circle",
    "Tenser's Floating Disk",
    "Thaumaturgy",
    "Thorn Whip",
    "Thunderclap",
    "Thunderous Smite",
    "Thunderwave",
    "Tidal Wave",
    "Time Stop",
    "Tongues",
    "Transmute Rock",
    "Transport via Plants",
    "Tree Stride",
    "True Polymorph",
    "True Resurrection",
    "True Seeing",
    "True Strike",
    "Tsunami",
    "Unseen Servant",
    "Vampiric Touch",
    "Vicious Mockery",
    "Vitriolic Sphere",
    "Wall of Fire",
    "Wall of Force",
    "Wall of Ice",
    "Wall of Sand",
    "Wall of Stone",
    "Wall of Thorns",
    "Wall of Water",
    "Warding Bond",
    "Warding Wind",
    "Water Breathing",
    "Water Walk",
    "Watery Sphere",
    "Web",
    "Weird",
    "Whirlwind",
    "Wind Walk",
    "Wind Wall",
    "Wish",
    "Witch Bolt",
    "Word of Recall",
    "Wrathful Smite",
    "Zone of Truth",
    "Conjure Barlgura (UA)",
    "Conjure Hezrou (UA)",
    "Conjure Lesser Demon (UA)",
    "Conjure Shadow Demon (UA)",
    "Conjure Vrock (UA)",
    "Arcane Hacking (UA)",
    "Commune with City (UA)",
    "Conjure Knowbot (UA)",
    "Digital Phantom (UA)",
    "Find Vehicle (UA)",
    "Haywire (UA)",
    "Infallible Relay (UA)",
    "Invisibility to Cameras (UA)",
    "On/Off (UA)",
    "Protection from Ballistics (UA)",
    "Remote Access (UA)",
    "Shutdown (UA)",
    "Synchronicity (UA)",
    "System Backdoor (UA)",
    "Beacon",
    "Blade Meld",
    "Blind Spot",
    "Delusion",
    "Energy Beam",
    "Light Step",
    "Mind Meld",
    "Mind Slam",
    "Mind Thrust",
    "Mystic Charm",
    "Mystic Hand",
    "Psychic Hammer",
    "Crown of Despair",
    "Crown of Disgust",
    "Crown of Rage",
    "Mantle of Command",
    "Mantle of Courage",
    "Mantle of Fury",
    "Mantle of Fear",
    "Mantle of Joy",
    "Mastery of Air",
    "Mastery of Fire",
    "Mastery of Force",
    "Mastery of Ice",
    "Mastery of Light and Darkness",
    "Mastery of Water",
    "Mastery of Weather",
    "Mastery of Wood and Earth",
    "Aura Sight",
    "Intellect Fortress",
    "Mantle of Awe",
    "Precognition",
    "Psychic Assault",
    "Psychic Disruption",
    "Psychic Inquisition",
    "Psychic Phantoms",
    "Telepathic Contact ",
    "Adaptive Body",
    "Bestial Form",
    "Brute Force",
    "Celerity",
    "Corrosive Metabolism",
    "Diminution",
    "Giant Growth",
    "Iron Durability",
    "Psionic Restoration",
    "Psionic Weapon",
    "Nomadic Arrow",
    "Nomadic Chameleon",
    "Nomadic Mind",
    "Nomadic Step",
    "Third Eye"
]